{
  "AWSEBDockerrunVersion": "1",
  "Image": {
    "Name": "<AWS_ACCOUNT_ID>.dkr.ecr.us-west-2.amazonaws.com/<AWS_IMAGE_NAME>:<TAG>"
  },
  "Ports": [
    {
      "ContainerPort": 8080,
      "HostPort": 8000
    }
  ]
}
